Chapter3
…
alc %>% group_by(high_use, absences) %>% summarise(count = n())

## # A tibble: 42 x 3
## # Groups:   high_use [?]
##    high_use absences count
##    <lgl>       <int> <int>
##  1 FALSE           0    43
##  2 FALSE           1    29
##  3 FALSE           2    33
##  4 FALSE           3    28
##  5 FALSE           4    19
##  6 FALSE           5    11
##  7 FALSE           6    13
##  8 FALSE           7     5
##  9 FALSE           8     9
## 10 FALSE           9     4
## # ... with 32 more rows
…
alc %>% group_by( Pstatus, high_use) %>% summarise(count = n())

## # A tibble: 4 x 3
## # Groups:   Pstatus [?]
##   Pstatus high_use count
##   <fct>   <lgl>    <int>
## 1 A       FALSE       24
## 2 A       TRUE        14
## 3 T       FALSE      184
## 4 T       TRUE       160

alc %>% group_by(G3, high_use) %>% summarise(count = n())

## # A tibble: 32 x 3
## # Groups:   G3 [?]
##       G3 high_use count
##    <int> <lgl>    <int>
##  1     0 TRUE         2
##  2     2 TRUE         1
##  3     3 FALSE        1
##  4     4 FALSE        2
##  5     4 TRUE         5
##  6     5 FALSE        4
##  7     5 TRUE         2
##  8     6 FALSE       13
##  9     6 TRUE         9
## 10     7 FALSE        2
## # ... with 22 more rows
…
